%YAML 1.1
%TAG !u! tag:unity3d.com,2011:
--- !u!114 &11400000
MonoBehaviour:
  m_ObjectHideFlags: 0
  m_PrefabParentObject: {fileID: 0}
  m_PrefabInternal: {fileID: 0}
  m_GameObject: {fileID: 0}
  m_Enabled: 1
  m_EditorHideFlags: 0
  m_Script: {fileID: 11500000, guid: 9f3758f8f58fdef43803eb9be1df0608, type: 3}
  m_Name: PhotonServerSettings
  m_EditorClassIdentifier: 
  HostType: 1
  ServerAddress: app-eu.exitgamescloud.com
  ServerPort: 5055
  AppID: 23fa0fbb-619f-41ef-b35b-e241d64af063
  RpcList:
  - Chat
  - InstantiateRpc
  - OnAwakeRPC
  - DestroyRpc
  DisableAutoOpenWizard: 0
